<svg
  viewBox="0 0 101.6 135.11588"
  xmlns="http://www.w3.org/2000/svg"
  xmlns:svg="http://www.w3.org/2000/svg"
>
  <path
    d="m 404.29688,147.89844 c -106.04003,0 -192,85.96 -192,192 0,87.4 116.10078,242.99922 168.30078,307.19922 12.30002,15.29998 35.10041,15.29998 47.40039,0 51.30002,-64.2 168.29883,-219.79922 168.29883,-307.19922 -10e-6,-106.04 -86.00002,-192 -192,-192 z m 0,35.77539 A 154.85263,154.85263 0 0 1 559.15039,338.52734 154.85263,154.85263 0 0 1 404.29688,493.37891 154.85263,154.85263 0 0 1 249.44531,338.52734 154.85263,154.85263 0 0 1 404.29688,183.67383 Z"
  />
</svg>
